Physical Design/RTL/waveforms.vcd
$date
	Fri Nov 29 00:21:55 2024
$end
$version
	Icarus Verilog
$end
$timescale
	1ps
$end
$scope module tb_toplevel $end
$scope module dut $end
$var wire 1 ! DIN $end
$upscope $end
$upscope $end
$scope module tb_toplevel $end
$scope module dut $end
$var wire 1 " K_IN $end
$upscope $end
$upscope $end
$scope module tb_toplevel $end
$scope module dut $end
$var wire 1 # EN $end
$upscope $end
$upscope $end
$scope module tb_toplevel $end
$scope module dut $end
$var wire 1 $ clk $end
$upscope $end
$upscope $end
$scope module tb_toplevel $end
$scope module dut $end
$var wire 1 % reset_n $end
$upscope $end
$upscope $end
$scope module tb_toplevel $end
$var wire 1 & DOUT $end
$upscope $end
$scope module tb_toplevel $end
$var wire 1 ' OUT_VAL $end
$upscope $end
$enddefinitions $end
#0
$dumpvars
x'
x&
0%
0$
1#
x"
0!
$end
#1000
0'
0&
#5000
1$
#7000
1%
#10000
0"
0$
#15000
1$
#20000
0$
#25000
1$
#30000
0$
1"
1!
#35000
1$
#40000
0$
0!
#45000
1$
#50000
0$
1!
#55000
1$
#60000
0$
#65000
1$
#70000
0$
0"
0!
#75000
1$
#80000
0$
#85000
1$
#90000
0$
1"
1!
#95000
1$
#100000
0$
#105000
1$
#110000
0$
#115000
1$
#120000
0$
0!
#125000
1$
#130000
0$
0"
#135000
1$
#140000
0$
#145000
1$
#150000
0$
1"
#155000
1$
#160000
0$
0"
#165000
1$
#170000
0$
1"
1!
#175000
1$
#180000
0$
#185000
1$
#190000
0$
#195000
1$
#200000
0$
0!
#205000
1$
#210000
0$
0"
1!
#215000
1$
#220000
0$
#225000
1$
#230000
0$
1"
0!
#235000
1$
#240000
0$
#245000
1$
#250000
0$
#255000
1$
#260000
0$
0"
#265000
1$
#270000
0$
#275000
1$
#280000
0$
1"
#285000
1$
#290000
0$
0"
#295000
1$
#300000
0$
1!
#305000
1$
#310000
0$
#315000
1$
#320000
0$
#325000
1$
#330000
0$
0!
#335000
1$
#340000
0$
1!
#345000
1$
#350000
0$
0!
#355000
1$
#360000
0$
1"
#365000
1$
#370000
0$
0"
#375000
1$
#380000
0$
1!
#385000
1$
#390000
0$
0!
#395000
1$
#400000
0$
1"
1!
#405000
1$
#410000
0$
0!
#415000
1$
#420000
0$
0"
#425000
1$
#430000
0$
1"
#435000
1$
#440000
0$
0"
1!
#445000
1$
#450000
0$
1"
#455000
1$
#460000
0$
0"
0!
#465000
1$
#470000
0$
#475000
1$
#480000
0$
1!
#485000
1$
#490000
0$
1"
#495000
1$
#500000
0$
0!
#505000
1$
#510000
0$
#515000
1$
#520000
0$
0"
#525000
1$
#530000
0$
1"
1!
#535000
1$
#540000
0$
#545000
1$
#550000
0$
0!
#555000
1$
#560000
0$
#565000
1$
#570000
0$
1!
#575000
1$
#580000
0$
0!
#585000
1$
#590000
0$
0"
#595000
1$
#600000
0$
1"
#605000
1$
#610000
0$
0"
1!
#615000
1$
#620000
0$
1"
#625000
1$
#630000
0$
0"
0!
#635000
1$
#640000
0$
1"
#645000
1$
#650000
0$
0"
1!
#655000
1$
#660000
0$
1"
0!
#665000
1$
#670000
0$
1!
#675000
1$
#680000
0$
0"
#685000
1$
#690000
0$
0!
#695000
1$
#700000
0$
1"
#705000
1$
#710000
0$
0"
#715000
1$
#720000
0$
1"
1!
#725000
1$
#730000
0$
0"
0!
#735000
1$
#740000
0$
1"
#745000
1$
#750000
0$
0"
#755000
1$
#760000
0$
#765000
1$
#770000
0$
1"
1!
#775000
1$
#780000
0$
0"
#785000
1$
#790000
0$
1"
0!
#795000
1$
#800000
0$
#805000
1$
#810000
0$
0"
#815000
1$
#820000
0$
1"
1!
#825000
1$
#830000
0$
0!
#835000
1$
#840000
0$
1!
#845000
1$
#850000
0$
0"
#855000
1$
#860000
0$
1"
0!
#865000
1$
#870000
0$
0"
1!
#875000
1$
#880000
0$
1"
0!
#885000
1$
#890000
0$
0"
#895000
1$
#900000
0$
#905000
1$
#910000
0$
#915000
1$
#920000
0$
1"
1!
#925000
1$
#930000
0$
0"
0!
#935000
1$
#940000
0$
1"
#945000
1$
#950000
0$
0"
#955000
1$
#960000
0$
1!
#965000
1$
#970000
0$
0!
#975000
1$
#980000
0$
1"
#985000
1$
#990000
0$
#995000
1$
#1000000
0$
0"
1!
#1005000
1$
#1010000
0$
1"
0!
#1015000
1$
#1020000
0$
0"
1!
#1025000
1$
#1030000
0$
0!
#1035000
1$
#1040000
0$
1!
#1045000
1$
#1050000
0$
1"
0!
#1055000
1$
#1060000
0$
0"
1!
#1065000
1$
#1070000
0$
1"
#1075000
1$
#1080000
0$
0"
0!
#1085000
1$
#1090000
0$
1"
1!
#1095000
1$
#1100000
0$
0"
#1105000
1$
#1110000
0$
#1115000
1$
#1120000
0$
#1125000
1$
#1130000
0$
#1135000
1$
#1140000
0$
1"
#1145000
1$
#1150000
0$
0!
#1155000
1$
#1160000
0$
#1165000
1$
#1170000
0$
#1175000
1$
#1180000
0$
#1185000
1$
#1190000
0$
1!
#1195000
1$
#1200000
0$
0"
0!
#1205000
1$
#1210000
0$
1"
#1215000
1$
#1220000
0$
1!
#1225000
1$
#1230000
0$
0"
0!
#1235000
1$
#1240000
0$
1"
#1245000
1$
#1250000
0$
0"
1!
#1255000
1$
#1260000
0$
1"
#1265000
1$
#1270000
0$
0"
0!
#1275000
1$
#1280000
0$
#1285000
1$
#1286000
1&
#1290000
0$
#1295000
1$
#1296000
0&
#1300000
0$
#1305000
1$
#1310000
0$
#1315000
1$
#1320000
0$
#1325000
1$
#1326000
1&
#1330000
0$
#1335000
1$
#1340000
0$
#1345000
1$
#1346000
0&
#1350000
0$
#1355000
1$
#1356000
1&
#1360000
0$
#1365000
1$
#1366000
0&
#1370000
0$
#1375000
1$
#1380000
0$
#1385000
1$
#1386000
1&
#1390000
0$
#1395000
1$
#1396000
0&
#1400000
0$
#1405000
1$
#1406000
1&
#1410000
0$
#1415000
1$
#1416000
0&
#1420000
0$
#1425000
1$
#1430000
0$
#1435000
1$
#1440000
0$
#1445000
1$
#1450000
0$
#1455000
1$
#1460000
0$
#1465000
1$
#1470000
0$
#1475000
1$
#1480000
0$
#1485000
1$
#1486000
1&
#1490000
0$
#1495000
1$
#1500000
0$
#1505000
1$
#1510000
0$
#1515000
1$
#1520000
0$
#1525000
1$
#1526000
0&
#1530000
0$
#1535000
1$
#1536000
1&
#1540000
0$
#1545000
1$
#1546000
0&
#1550000
0$
#1555000
1$
#1556000
1&
#1560000
0$
#1565000
1$
#1566000
0&
#1570000
0$
#1575000
1$
#1576000
1&
#1580000
0$
#1585000
1$
#1586000
0&
#1590000
0$
#1595000
1$
#1596000
1&
#1600000
0$
#1605000
1$
#1610000
0$
#1615000
1$
#1616000
0&
#1620000
0$
#1625000
1$
#1626000
1&
#1630000
0$
#1635000
1$
#1640000
0$
#1645000
1$
#1646000
0&
#1650000
0$
#1655000
1$
#1660000
0$
#1665000
1$
#1666000
1&
#1670000
0$
#1675000
1$
#1676000
0&
#1680000
0$
#1685000
1$
#1690000
0$
#1695000
1$
#1700000
0$
#1705000
1$
#1710000
0$
#1715000
1$
#1720000
0$
#1725000
1$
#1726000
1&
#1730000
0$
#1735000
1$
#1740000
0$
#1745000
1$
#1746000
0&
#1750000
0$
#1755000
1$
#1760000
0$
#1765000
1$
#1766000
1&
#1770000
0$
#1775000
1$
#1776000
0&
#1780000
0$
#1785000
1$
#1786000
1&
#1790000
0$
#1795000
1$
#1800000
0$
#1805000
1$
#1810000
0$
#1815000
1$
#1820000
0$
#1825000
1$
#1830000
0$
#1835000
1$
#1840000
0$
#1845000
1$
#1850000
0$
#1855000
1$
#1856000
0&
#1860000
0$
#1865000
1$
#1870000
0$
#1875000
1$
#1880000
0$
#1885000
1$
#1890000
0$
#1895000
1$
#1896000
1&
#1900000
0$
#1905000
1$
#1910000
0$
#1915000
1$
#1920000
0$
#1925000
1$
#1926000
0&
#1930000
0$
#1935000
1$
#1936000
1&
#1940000
0$
#1945000
1$
#1950000
0$
#1955000
1$
#1956000
0&
#1960000
0$
#1965000
1$
#1966000
1&
#1970000
0$
#1975000
1$
#1980000
0$
#1985000
1$
#1986000
0&
#1990000
0$
#1995000
1$
#1996000
1&
#2000000
0$
#2005000
1$
#2010000
0$
#2015000
1$
#2016000
0&
#2020000
0$
#2025000
1$
#2030000
0$
#2035000
1$
#2040000
0$
#2045000
1$
#2050000
0$
#2055000
1$
#2060000
0$
#2065000
1$
#2066000
1&
#2070000
0$
#2075000
1$
#2080000
0$
#2085000
1$
#2086000
0&
#2090000
0$
#2095000
1$
#2096000
1&
#2100000
0$
#2105000
1$
#2106000
0&
#2110000
0$
#2115000
1$
#2120000
0$
#2125000
1$
#2130000
0$
#2135000
1$
#2140000
0$
#2145000
1$
#2150000
0$
#2155000
1$
#2156000
1&
#2160000
0$
#2165000
1$
#2166000
0&
#2170000
0$
#2175000
1$
#2176000
1&
#2180000
0$
#2185000
1$
#2190000
0$
#2195000
1$
#2200000
0$
#2205000
1$
#2210000
0$
#2215000
1$
#2220000
0$
#2225000
1$
#2230000
0$
#2235000
1$
#2240000
0$
#2245000
1$
#2250000
0$
#2255000
1$
#2256000
0&
#2260000
0$
#2265000
1$
#2270000
0$
#2275000
1$
#2276000
1&
#2280000
0$
#2285000
1$
#2290000
0$
#2295000
1$
#2296000
0&
#2300000
0$
#2305000
1$
#2310000
0$
#2315000
1$
#2316000
1&
#2320000
0$
#2325000
1$
#2330000
0$
#2335000
1$
#2340000
0$
#2345000
1$
#2350000
0$
#2355000
1$
#2360000
0$
#2365000
1$
#2366000
0&
#2370000
0$
#2375000
1$
#2380000
0$
#2385000
1$
#2386000
1&
#2390000
0$
#2395000
1$
#2400000
0$
#2405000
1$
#2406000
0&
#2410000
0$
#2415000
1$
#2420000
0$
#2425000
1$
#2430000
0$
#2435000
1$
#2436000
1&
#2440000
0$
#2445000
1$
#2446000
0&
#2450000
0$
#2455000
1$
#2460000
0$
#2465000
1$
#2466000
1&
#2470000
0$
#2475000
1$
#2476000
0&
#2480000
0$
#2485000
1$
#2490000
0$
#2495000
1$
#2496000
1&
#2500000
0$
#2505000
1$
#2506000
0&
#2510000
0$
#2515000
1$
#2516000
1&
#2520000
0$
#2525000
1$
#2530000
0$
#2535000
1$
#2540000
0$
#2545000
1$
#2546000
0&
#2550000
0$
#2555000
1$
#2556000
1&
#2560000
0$
#2565000
1$
#2566000
1'
0&
#2570000
0$
#2575000
1$
#2576000
1&
#2580000
0$
#2585000
1$
#2586000
0&
#2590000
0$
#2595000
1$
#2600000
0$
#2605000
1$
#2606000
1&
#2610000
0$
#2615000
1$
#2620000
0$
#2625000
1$
#2626000
0&
#2630000
0$
#2635000
1$
#2640000
0$
#2645000
1$
#2646000
1&
#2650000
0$
#2655000
1$
#2660000
0$
#2665000
1$
#2666000
1'
0&
#2670000
0$
#2675000
1$
#2676000
1&
#2680000
0$
#2685000
1$
#2686000
0&
#2690000
0$
#2695000
1$
#2700000
0$
#2705000
1$
#2710000
0$
#2715000
1$
#2720000
0$
#2725000
1$
#2730000
0$
#2735000
1$
#2736000
1&
#2740000
0$
#2745000
1$
#2746000
0&
#2750000
0$
#2755000
1$
#2756000
1&
#2760000
0$
#2765000
1$
#2766000
0&
#2770000
0$
#2775000
1$
#2776000
1&
#2780000
0$
#2785000
1$
#2790000
0$
#2795000
1$
#2796000
1'
0&
#2800000
0$
#2805000
1$
#2806000
1&
#2810000
0$
#2815000
1$
#2816000
0&
#2820000
0$
#2825000
1$
#2830000
0$
#2835000
1$
#2836000
1&
#2840000
0$
#2845000
1$
#2850000
0$
#2855000
1$
#2856000
0&
#2860000
0$
#2865000
1$
#2870000
0$
#2875000
1$
#2880000
0$
#2885000
1$
#2886000
1&
#2890000
0$
#2895000
1$
#2900000
0$
#2905000
1$
#2910000
0$
#2915000
1$
#2916000
0&
#2920000
0$
#2925000
1$
#2926000
1'
1&
#2930000
0$
#2935000
1$
#2936000
0&
#2940000
0$
#2945000
1$
#2950000
0$
#2955000
1$
#2956000
1&
#2960000
0$
#2965000
1$
#2970000
0$
#2975000
1$
#2976000
0&
#2980000
0$
#2985000
1$
#2986000
1&
#2990000
0$
#2995000
1$
#2996000
0&
#3000000
0$
#3005000
1$
#3010000
0$
#3015000
1$
#3020000
0$
#3025000
1$
#3030000
0$
#3035000
1$
#3036000
1&
#3040000
0$
#3045000
1$
#3050000
0$
#3055000
1$
#3056000
1'
0&
#3060000
0$
#3065000
1$
#3070000
0$
#3075000
1$
#3080000
0$
#3085000
1$
#3086000
1&
#3090000
0$
#3095000
1$
#3096000
0&
#3100000
0$
#3105000
1$
#3110000
0$
#3115000
1$
#3120000
0$
#3125000
1$
#3130000
0$
#3135000
1$
#3140000
0$
#3145000
1$
#3146000
1&
#3150000
0$
#3155000
1$
#3160000
0$
#3165000
1$
#3170000
0$
#3175000
1$
#3176000
0&
#3180000
0$
#3185000
1$
#3186000
1'
1&
#3190000
0$
#3195000
1$
#3200000
0$
#3205000
1$
#3210000
0$
#3215000
1$
#3220000
0$
#3225000
1$
#3226000
0&
#3230000
0$
#3235000
1$
#3236000
1&
#3240000
0$
#3245000
1$
#3250000
0$
#3255000
1$
#3260000
0$
#3265000
1$
#3270000
0$
#3275000
1$
#3280000
0$
#3285000
1$
#3290000
0$
#3295000
1$
#3296000
0&
#3300000
0$
#3305000
1$
#3310000
0$
#3315000
1$
#3316000
1'
1&
#3320000
0$
#3325000
1$
#3326000
0&
#3330000
0$
#3335000
1$
#3340000
0$
#3345000
1$
#3350000
0$
#3355000
1$
#3360000
0$
#3365000
1$
#3370000
0$
#3375000
1$
#3380000
0$
#3385000
1$
#3386000
1&
#3390000
0$
#3395000
1$
#3400000
0$
#3405000
1$
#3410000
0$
#3415000
1$
#3416000
0&
#3420000
0$
#3425000
1$
#3426000
1&
#3430000
0$
#3435000
1$
#3440000
0$
#3445000
1$
#3446000
1'
0&
#3450000
0$
#3455000
1$
#3456000
1&
#3460000
0$
#3465000
1$
#3466000
0&
#3470000
0$
#3475000
1$
#3480000
0$
#3485000
1$
#3490000
0$
#3495000
1$
#3500000
0$
#3505000
1$
#3510000
0$
#3515000
1$
#3520000
0$
#3525000
1$
#3526000
1&
#3530000
0$
#3535000
1$
#3536000
0&
#3540000
0$
#3545000
1$
#3546000
1&
#3550000
0$
#3555000
1$
#3560000
0$
#3565000
1$
#3570000
0$
#3575000
1$
#3576000
1'
0&
#3580000
0$
#3585000
1$
#3590000
0$
#3595000
1$
#3600000
0$
#3605000
1$
#3610000
0$
#3615000
1$
#3620000
0$
#3625000
1$
#3626000
1&
#3630000
0$
#3635000
1$
#3636000
0&
#3640000
0$
#3645000
1$
#3650000
0$
#3655000
1$
#3660000
0$
#3665000
1$
#3670000
0$
#3675000
1$
#3676000
1&
#3680000
0$
#3685000
1$
#3690000
0$
#3695000
1$
#3696000
0&
#3700000
0$
#3705000
1$
#3706000
1'
1&
#3710000
0$
#3715000
1$
#3716000
0&
#3720000
0$
#3725000
1$
#3730000
0$
#3735000
1$
#3736000
1&
#3740000
0$
#3745000
1$
#3746000
0&
#3750000
0$
#3755000
1$
#3760000
0$
#3765000
1$
#3766000
1&
#3770000
0$
#3775000
1$
#3776000
0&
#3780000
0$
#3785000
1$
#3790000
0$
#3795000
1$
#3796000
1&
#3800000
0$
#3805000
1$
#3810000
0$
#3815000
1$
#3820000
0$
#3825000
1$
#3826000
0&
#3830000
0$
#3835000
1$
#3840000
0$
#3845000
1$
#3846000
1&
#3850000
0$
#3855000
1$
#3860000
0$
#3865000
1$
#3870000
0$
#3875000
1$
#3880000
0$
#3885000
1$
#3886000
0&
#3890000
0$
#3895000
1$
#3896000
1&
#3900000
0$
#3905000
1$
#3910000
0$
#3915000
1$
#3916000
0&
#3920000
0$
#3925000
1$
#3930000
0$
#3935000
1$
#3940000
0$
#3945000
1$
#3946000
1'
1&
#3950000
0$
#3955000
1$
#3956000
0&
#3960000
0$
#3965000
1$
#3966000
1&
#3970000
0$
#3975000
1$
#3976000
0&
#3980000
0$
#3985000
1$
#3986000
1&
#3990000
0$
#3995000
1$
#3996000
0&
#4000000
0$
#4005000
1$
#4006000
1&
#4010000
0$
#4015000
1$
#4020000
0$
#4025000
1$
#4026000
0&
#4030000
0$
#4035000
1$
#4036000
1&
#4040000
0$
#4045000
1$
#4050000
0$
#4055000
1$
#4056000
0&
#4060000
0$
#4065000
1$
#4070000
0$
#4075000
1$
#4076000
1'
#4080000
0$
#4085000
1$
#4086000
1&
#4090000
0$
#4095000
1$
#4096000
0&
#4100000
0$
#4105000
1$
#4110000
0$
#4115000
1$
#4116000
1&
#4120000
0$
#4125000
1$
#4130000
0$
#4135000
1$
#4140000
0$
#4145000
1$
#4146000
0&
#4150000
0$
#4155000
1$
#4156000
1&
#4160000
0$
#4165000
1$
#4170000
0$
#4175000
1$
#4180000
0$
#4185000
1$
#4190000
0$
#4195000
1$
#4196000
0&
#4200000
0$
#4205000
1$
#4206000
1'
#4210000
0$
#4215000
1$
#4220000
0$
#4225000
1$
#4226000
1&
#4230000
0$
#4235000
1$
#4236000
0&
#4240000
0$
#4245000
1$
#4250000
0$
#4255000
1$
#4260000
0$
#4265000
1$
#4270000
0$
#4275000
1$
#4280000
0$
#4285000
1$
#4286000
1&
#4290000
0$
#4295000
1$
#4300000
0$
#4305000
1$
#4310000
0$
#4315000
1$
#4320000
0$
#4325000
1$
#4326000
0&
#4330000
0$
#4335000
1$
#4336000
1'
1&
#4340000
0$
#4345000
1$
#4346000
0&
#4350000
0$
#4355000
1$
#4360000
0$
#4365000
1$
#4370000
0$
#4375000
1$
#4380000
0$
#4385000
1$
#4386000
1&
#4390000
0$
#4395000
1$
#4396000
0&
#4400000
0$
#4405000
1$
#4410000
0$
#4415000
1$
#4416000
1&
#4420000
0$
#4425000
1$
#4430000
0$
#4435000
1$
#4440000
0$
#4445000
1$
#4450000
0$
#4455000
1$
#4460000
0$
#4465000
1$
#4466000
1'
0&
#4470000
0$
#4475000
1$
#4480000
0$
#4485000
1$
#4486000
1&
#4490000
0$
#4495000
1$
#4500000
0$
#4505000
1$
#4506000
0&
#4510000
0$
#4515000
1$
#4520000
0$
#4525000
1$
#4526000
1&
#4530000
0$
#4535000
1$
#4540000
0$
#4545000
1$
#4546000
0&
#4550000
0$
#4555000
1$
#4556000
1&
#4560000
0$
#4565000
1$
#4570000
0$
#4575000
1$
#4576000
0&
#4580000
0$
#4585000
1$
#4590000
0$
#4595000
1$
#4596000
1'
1&
#4600000
0$
#4605000
1$
#4610000
0$
#4615000
1$
#4616000
0&
#4620000
0$
#4625000
1$
#4630000
0$
#4635000
1$
#4636000
1&
#4640000
0$
#4645000
1$
#4646000
0&
#4650000
0$
#4655000
1$
#4660000
0$
#4665000
1$
#4670000
0$
#4675000
1$
#4676000
1&
#4680000
0$
#4685000
1$
#4690000
0$
#4695000
1$
#4700000
0$
#4705000
1$
#4706000
0&
#4710000
0$
#4715000
1$
#4716000
1&
#4720000
0$
#4725000
1$
#4726000
1'
0&
#4730000
0$
#4735000
1$
#4736000
1&
#4740000
0$
#4745000
1$
#4746000
0&
#4750000
0$
#4755000
1$
#4756000
1&
#4760000
0$
#4765000
1$
#4770000
0$
#4775000
1$
#4776000
0&
#4780000
0$
#4785000
1$
#4790000
0$
#4795000
1$
#4800000
0$
#4805000
1$
#4810000
0$
#4815000
1$
#4820000
0$
#4825000
1$
#4826000
1&
#4830000
0$
#4835000
1$
#4840000
0$
#4845000
1$
#4846000
0&
#4850000
0$
#4855000
1$
#4856000
1'
#4860000
0$
#4865000
1$
#4870000
0$
#4875000
1$
#4880000
0$
#4885000
1$
#4886000
1&
#4890000
0$
#4895000
1$
#4900000
0$
#4905000
1$
#4906000
0&
#4910000
0$
#4915000
1$
#4916000
1&
#4920000
0$
#4925000
1$
#4926000
0&
#4930000
0$
#4935000
1$
#4936000
1&
#4940000
0$
#4945000
1$
#4950000
0$
#4955000
1$
#4956000
0&
#4960000
0$
#4965000
1$
#4966000
1&
#4970000
0$
#4975000
1$
#4980000
0$
#4985000
1$
#4986000
1'
#4990000
0$
#4995000
1$
#4996000
0&
#5000000
0$
#5005000
1$
#5006000
1&
#5010000
0$
#5015000
1$
#5020000
0$
#5025000
1$
#5030000
0$
#5035000
1$
#5040000
0$
#5045000
1$
#5050000
0$
#5055000
1$
#5056000
0&
#5060000
0$
#5065000
1$
#5066000
1&
#5070000
0$
#5075000
1$
#5080000
0$
#5085000
1$
#5090000
0$
#5095000
1$
#5100000
0$
#5105000
1$
#5110000
0$
#5115000
1$
#5116000
0&
#5120000
0$
#5125000
1$
#5126000
1&
#5130000
0$
#5135000
1$
#5140000
0$
#5145000
1$
#5150000
0$
#5155000
1$
#5160000
0$
#5165000
1$
#5166000
0&
#5170000
0$
#5175000
1$
#5176000
1&
